%YAML 1.1
%TAG !u! tag:unity3d.com,2011:
--- !u!21 &2100000
Material:
  serializedVersion: 6
  m_ObjectHideFlags: 0
  m_CorrespondingSourceObject: {fileID: 0}
  m_PrefabInstance: {fileID: 0}
  m_PrefabAsset: {fileID: 0}
  m_Name: Carpet
  m_Shader: {fileID: 4800000, guid: 0da88218978564f2ea42d36f73b48fe6, type: 3}
  m_ShaderKeywords: 
  m_LightmapFlags: 5
  m_EnableInstancingVariants: 0
  m_DoubleSidedGI: 0
  m_CustomRenderQueue: 2000
  stringTagMap: {}
  disabledShaderPasses: []
  m_SavedProperties:
    serializedVersion: 3
    m_TexEnvs:
    - _AmbientOcculsion:
        m_Texture: {fileID: 2800000, guid: 9edf5bc892bf743f8851af245c662b9f, type: 3}
        m_Scale: {x: 4, y: 3}
        m_Offset: {x: 0, y: 0}
    - _BumpMap:
        m_Texture: {fileID: 2800000, guid: 85427bdebfaf04c7ab9fa728c31d2a53, type: 3}
        m_Scale: {x: 4, y: 3}
        m_Offset: {x: 0, y: 0}
    - _DetailAlbedoMap:
        m_Texture: {fileID: 0}
        m_Scale: {x: 1, y: 1}
        m_Offset: {x: 0, y: 0}
    - _DetailMask:
        m_Texture: {fileID: 0}
        m_Scale: {x: 1, y: 1}
        m_Offset: {x: 0, y: 0}
    - _DetailNormalMap:
        m_Texture: {fileID: 0}
        m_Scale: {x: 1, y: 1}
        m_Offset: {x: 0, y: 0}
    - _EmissionMap:
        m_Texture: {fileID: 0}
        m_Scale: {x: 1, y: 1}
        m_Offset: {x: 0, y: 0}
    - _HeightMap:
        m_Texture: {fileID: 2800000, guid: cee02fe8be0b346d59f781016b15c3c7, type: 3}
        m_Scale: {x: 4, y: 3}
        m_Offset: {x: 0, y: 0}
    - _MainTex:
        m_Texture: {fileID: 2800000, guid: 01ddeef715e194335bfb57ed4696a604, type: 3}
        m_Scale: {x: 4, y: 3}
        m_Offset: {x: 0, y: 0}
    - _MetallicGlossMap:
        m_Texture: {fileID: 0}
        m_Scale: {x: 1, y: 1}
        m_Offset: {x: 0, y: 0}
    - _OcclusionMap:
        m_Texture: {fileID: 0}
        m_Scale: {x: 1, y: 1}
        m_Offset: {x: 0, y: 0}
    - _Occulsion:
        m_Texture: {fileID: 2800000, guid: 30b7f28c851e44062812a198a1c67da7, type: 3}
        m_Scale: {x: 1, y: 1}
        m_Offset: {x: 0, y: 0}
    - _ParallaxMap:
        m_Texture: {fileID: 0}
        m_Scale: {x: 1, y: 1}
        m_Offset: {x: 0, y: 0}
    - _SpecularMap:
        m_Texture: {fileID: 2800000, guid: 69486f7c976f44cdaa9d7a8c0696c698, type: 3}
        m_Scale: {x: 4, y: 3}
        m_Offset: {x: 0, y: 0}
    - _node_3846:
        m_Texture: {fileID: 2800000, guid: 3a5a96df060a5cf4a9cc0c59e13486b7, type: 3}
        m_Scale: {x: 1, y: 1}
        m_Offset: {x: 0, y: 0}
    m_Floats:
    - _BumpScale: 1
    - _Bumpiness: 0
    - _Cutoff: 0.5
    - _DetailNormalMapScale: 1
    - _DstBlend: 0
    - _Gloss: 0.8
    - _Glossiness: 0
    - _Metallic: 0
    - _Mode: 0
    - _OcclusionStrength: 1
    - _OcculderShadows: 0.245
    - _Occulsion: 0.78
    - _Parallax: 0.02
    - _Roughness: 0.985
    - _Sharpness: 1
    - _Shine: 0.023
    - _Specularity: 0.63
    - _SrcBlend: 1
    - _TrueTiling: 5
    - _UVSec: 0
    - _ZWrite: 1
    - _node_3978: 0
    - _node_7910: 0
    m_Colors:
    - _Color: {r: 0.09433961, g: 0.09433961, b: 0.09433961, a: 1}
    - _EmissionColor: {r: 0, g: 0, b: 0, a: 1}
